﻿1	1	 
2	68	68	 
3	364	364	 
4	1169	1169	 
5	2885	2885	 
6	6039	6039	 
7	11288	11288	 
8	19424	19424	 
9	31379	31379	 
10	48230	48230	 
11	71203	71203	 
12	101678	101678	 
13	141194	141194	 
14	191455	191455	 
15	254331	254331	 
16	331868	331868	 
17	426289	426289	 
18	540001	540001	 
19	675597	675597	 
20	835864	835864	 
21	1023785	1023785	 
22	1242548	1439215	15.83
23	1495545	1948497	30.29
24	1786381	2568850	43.80
25	2118878	3320625	56.72
26	2497079	4227172	69.28
27	2925253	5315161	81.70
28	3407900	6614929	94.11
29	3949756	8161929	106.64
30	4555798	9995812	119.41
31	5231248	12162655	132.50
32	5981578	14713777	145.98
33	6812515	17708475	159.94
34	7730047	21213445	174.43
35	8740424	25304463	189.51
36	9850168	30067485	205.25
37	11066074	35599858	221.70
38	12395217	42010312	238.92
39	13844954	49421366	256.96
40	15422932	57972427	275.88
41	17137090	67818553	295.74
42	18995668	79135431	316.60
43	21007206	92117896	338.51
44	23180553	106985763	361.53
45	25524871	123986756	385.75
46	28049639	143394645	411.22
47	30764658	165516618	438.01
48	33680056	190696911	466.20
49	36806293	219317613	495.87
50	40154166	251805374	527.10
51	45525136	288635909	534.01
52	51262494	330338848	544.41
53	57383991	377507026	557.86
54	63907915	430790086	574.08
55	70853093	490916803	592.87
56	80700835	558693890	592.30
57	91162658	635018116	596.58
58	102265885	720879370	604.91
59	114038601	817380319	616.76
60	126509658	925741335	631.76
61	146308204	1047311009	615.83
62	167244342	1183577349	607.69
63	189364898	1336187067	605.61
64	212717912	1506967658	608.43
65	237352649	1697936136	615.36
66	271975268	1911306680	602.75
67	308443203	2149533465	596.90
68	346827159	2415323168	596.41
69	387199552	2711646440	600.32
70	429634528	3041801165	608.00
71	474207984	3409398455	618.97
72	532694984	3818421441	616.81
73	606322780	4273257148	604.78
74	696381375	4778730308	586.22
75	804225370	5340152664	564.01